{"componentChunkName":"component---node-modules-gatsby-theme-buzzing-src-gatsby-theme-timeline-templates-posts-query-js","path":"/zh-Hant/tags/books/page/13","result":{"data":{"site":{"siteMetadata":{"title":"Buzzing 读书","description":"用中文浏览读书，荐书相关的讨论","social":[{"name":"Reddit Books","url":"https://www.reddit.com/r/books/","external":true,"prefetch":null},{"name":"Suggest Me A Book","url":"https://www.reddit.com/r/suggestmeabook/","external":true,"prefetch":null},{"name":"Buzzing","url":"https://www.buzzing.cc/","external":true,"prefetch":null}],"menuLinks":[{"name":"RSS","url":"/rss.xml","external":null,"prefetch":false}],"localize":[{"locale":"en","title":"Buzzing Books","description":"See what's buzzing on Books in your native language","social":[{"name":"Reddit","url":"https://www.reddit.com/","external":true,"prefetch":null}],"menuLinks":[{"name":"RSS","url":"/en/rss.xml","external":null,"prefetch":false}]},{"locale":"zh-Hant","title":"Buzzing 讀書","description":"用中文瀏覽讀書，薦書相關的討論","social":null,"menuLinks":[{"name":"RSS","url":"/zh-Hant/rss.xml","external":null,"prefetch":false}]}]}},"tagsGroup":{"group":[{"fieldValue":"books","totalCount":309},{"fieldValue":"booksuggestions","totalCount":136},{"fieldValue":"reddit","totalCount":445}]},"allBlogPost":{"nodes":[{"__typename":"SocialMediaPost","id":"RedditPost-kw7t6m","excerpt":"I think that in my case it depends on the quality of the rest of the story. If\nI'm reading a book and hating every minute of it when I get to the bad ending it\nwould just become one more thing to complain about later on, like a cherry on\ntop of a pile of garbage.\n\nIt's a lot worse when the book is…","slug":"/reddit/r/books/comments/kw7t6m/does_a_bad_ending_ruin_a_book_for_you/","title":"Does a bad ending ruin a book for you?","date":"January 26, 2021","dateISO":"2021-01-26T03:12:52.000Z","datetime":"2021-01-26 03:12","tags":["books","reddit"],"image":null,"imageAlt":null,"provider":"Reddit","thirdPartyId":"kw7t6m","url":"https://www.reddit.com/r/books/comments/kw7t6m/does_a_bad_ending_ruin_a_book_for_you/","originalUrl":"https://www.reddit.com/r/books/comments/kw7t6m/does_a_bad_ending_ruin_a_book_for_you/","imageRemote":null,"video":null,"channel":"books","channelUrl":"https://www.reddit.com/r/books","author":"look-at-your-window","authorUrl":"https://www.reddit.com/user/look-at-your-window","authorImage":null,"authorSlug":"look-at-your-window","score":7378,"views":null,"sharedCount":null,"likeCount":null,"sharedContent":null,"parent":{"__typename":"RedditJson","localize":[{"title":"一个糟糕的结局会毁了你的书吗？","the_new_excerpt":"我认为，在我的情况下，这取决于其他故事的质量。如果\n我读一本书，恨它的每一分钟，当我到了不好的结局，它。\n只会成为一个更多的东西抱怨以后，就像一个樱桃上的樱桃。\n一堆垃圾的顶部。\n\n这是更糟糕的，当书是... ...","locale":"zh"},{"title":"一個糟糕的結局會毀了你的書嗎？","the_new_excerpt":"我認爲，在我的情況下，這取決於其他故事的質量。如果\n我讀一本書，恨它的每一分鐘，當我到了不好的結局，它。\n只會成爲一個更多的東西抱怨以後，就像一個櫻桃上的櫻桃。\n一堆垃圾的頂部。\n\n這是更糟糕的，當書是... ...","locale":"zh-Hant"}]}},{"__typename":"SocialMediaPost","id":"RedditPost-kwc9ij","excerpt":"I've just realised that I won't be able to read most of the new books - because\nI'm not ready to read about people wearing maska, people isolating etc. Not yet,\nat least. Maybe one day in the future. But I hate this reality and I don't cope\nwith it well. I just hate the thought of reading about it,…","slug":"/reddit/r/books/comments/kwc9ij/books_set_in_the_covidreality_are_going_to_start/","title":"Books set in the covid-reality are going to start appearing and I don't want to read them.","date":"January 26, 2021","dateISO":"2021-01-26T03:12:52.000Z","datetime":"2021-01-26 03:12","tags":["books","reddit"],"image":null,"imageAlt":null,"provider":"Reddit","thirdPartyId":"kwc9ij","url":"https://www.reddit.com/r/books/comments/kwc9ij/books_set_in_the_covidreality_are_going_to_start/","originalUrl":"https://www.reddit.com/r/books/comments/kwc9ij/books_set_in_the_covidreality_are_going_to_start/","imageRemote":null,"video":null,"channel":"books","channelUrl":"https://www.reddit.com/r/books","author":"Wurunzimu","authorUrl":"https://www.reddit.com/user/Wurunzimu","authorImage":null,"authorSlug":"Wurunzimu","score":11386,"views":null,"sharedCount":null,"likeCount":null,"sharedContent":null,"parent":{"__typename":"RedditJson","localize":[{"title":"以covid-现实为背景的书要开始出现了，我不想看。","the_new_excerpt":"我刚刚意识到，我将无法阅读大部分的新书--由于\n我不准备读到人们戴着马斯卡，人们隔离等等。还没有。\n至少是这样 也许将来有一天会这样。但我讨厌这个现实，我无法应对。\n与它好。我只是讨厌读到它，... ...","locale":"zh"},{"title":"以covid-現實爲背景的書要開始出現了，我不想看。","the_new_excerpt":"我剛剛意識到，我將無法閱讀大部分的新書--由於\n我不準備讀到人們戴着馬斯卡，人們隔離等等。還沒有。\n至少是這樣 也許將來有一天會這樣。但我討厭這個現實，我無法應對。\n與它好。我只是討厭讀到它，... ...","locale":"zh-Hant"}]}},{"__typename":"SocialMediaPost","id":"RedditPost-kx1jih","excerpt":"Probably going to get downvoted for this, but I seriously dislike when authors\njump between different characters storylines in each chapter. I don’t have a\ngreat memory so I spend a lot of the time trying to remember where they left\noff. Also, sometimes I don’t like the character or their storyline,…","slug":"/reddit/r/books/comments/kx1jih/unpopular_opinion_jumping_between_different/","title":"Unpopular Opinion: Jumping between different characters on each chapter is just annoying.","date":"January 26, 2021","dateISO":"2021-01-26T03:12:52.000Z","datetime":"2021-01-26 03:12","tags":["books","reddit"],"image":null,"imageAlt":null,"provider":"Reddit","thirdPartyId":"kx1jih","url":"https://www.reddit.com/r/books/comments/kx1jih/unpopular_opinion_jumping_between_different/","originalUrl":"https://www.reddit.com/r/books/comments/kx1jih/unpopular_opinion_jumping_between_different/","imageRemote":null,"video":null,"channel":"books","channelUrl":"https://www.reddit.com/r/books","author":"per1pheral","authorUrl":"https://www.reddit.com/user/per1pheral","authorImage":null,"authorSlug":"per1pheral","score":17194,"views":null,"sharedCount":null,"likeCount":null,"sharedContent":null,"parent":{"__typename":"RedditJson","localize":[{"title":"不受欢迎的意见。每一章都在不同的人物之间跳转，实在是让人讨厌。","the_new_excerpt":"可能会因此而被降权，但我严重不喜欢作者们\n在每一章的不同人物剧情之间跳跃。我没有\n记忆力很好，所以我花了很多时间试图记住他们离开的地方。\n关。另外，有时候我也不喜欢这个人物或者他们的故事情节，... ...","locale":"zh"},{"title":"不受歡迎的意見。每一章都在不同的人物之間跳轉，實在是讓人討厭。","the_new_excerpt":"可能會因此而被降權，但我嚴重不喜歡作者們\n在每一章的不同人物劇情之間跳躍。我沒有\n記憶力很好，所以我花了很多時間試圖記住他們離開的地方。\n關。另外，有時候我也不喜歡這個人物或者他們的故事情節，... ...","locale":"zh-Hant"}]}},{"__typename":"SocialMediaPost","id":"RedditPost-kxu8n4","excerpt":"","slug":"/reddit/r/books/comments/kxu8n4/amazoncom_and_big_five_publishers_accused_of/","title":"Amazon.com and 'Big Five' publishers accused of ebook price-fixing","date":"January 26, 2021","dateISO":"2021-01-26T03:12:52.000Z","datetime":"2021-01-26 03:12","tags":["books","reddit"],"image":null,"imageAlt":"Reddit Image","provider":"Reddit","thirdPartyId":"kxu8n4","url":"https://www.reddit.com/r/books/comments/kxu8n4/amazoncom_and_big_five_publishers_accused_of/","originalUrl":"https://www.reddit.com/r/books/comments/kxu8n4/amazoncom_and_big_five_publishers_accused_of/","imageRemote":"https://external-preview.redd.it/S4S83AXUhZh7t6ygzsMQN45SVJXUEcL5m5tOjM0SEDA.jpg?width=1080&crop=smart&auto=webp&s=bc9e136b4358d0c98559563770efbf9672f430fe","video":null,"channel":"books","channelUrl":"https://www.reddit.com/r/books","author":"zsreport","authorUrl":"https://www.reddit.com/user/zsreport","authorImage":null,"authorSlug":"zsreport","score":14286,"views":null,"sharedCount":null,"likeCount":null,"sharedContent":null,"parent":{"__typename":"RedditJson","localize":[{"title":"亚马逊公司和 \"五大 \"出版商被控操纵电子书价格。","the_new_excerpt":null,"locale":"zh"},{"title":"亞馬遜公司和 \"五大 \"出版商被控操縱電子書價格。","the_new_excerpt":null,"locale":"zh-Hant"}]}},{"__typename":"SocialMediaPost","id":"RedditPost-kyldr4","excerpt":"","slug":"/reddit/r/books/comments/kyldr4/amazon_and_major_publishers_colluded_to_keep/","title":"Amazon and major publishers colluded to keep e-book prices high, lawsuit says","date":"January 26, 2021","dateISO":"2021-01-26T03:12:52.000Z","datetime":"2021-01-26 03:12","tags":["books","reddit"],"image":null,"imageAlt":"Reddit Image","provider":"Reddit","thirdPartyId":"kyldr4","url":"https://www.reddit.com/r/books/comments/kyldr4/amazon_and_major_publishers_colluded_to_keep/","originalUrl":"https://www.reddit.com/r/books/comments/kyldr4/amazon_and_major_publishers_colluded_to_keep/","imageRemote":"https://external-preview.redd.it/XABzHj0Pb5Q6aOeF8_6fYZy5BsdbRZCxA2qWhvJ6Wf4.jpg?width=320&crop=smart&auto=webp&s=d2247bc81d84c8d417fb4dfd98538c1f10fff228","video":null,"channel":"books","channelUrl":"https://www.reddit.com/r/books","author":"diverareyouok","authorUrl":"https://www.reddit.com/user/diverareyouok","authorImage":null,"authorSlug":"diverareyouok","score":17002,"views":null,"sharedCount":null,"likeCount":null,"sharedContent":null,"parent":{"__typename":"RedditJson","localize":[{"title":"诉讼称，亚马逊和主要出版商串通，使电子书价格居高不下。","the_new_excerpt":null,"locale":"zh"},{"title":"訴訟稱，亞馬遜和主要出版商串通，使電子書價格居高不下。","the_new_excerpt":null,"locale":"zh-Hant"}]}},{"__typename":"SocialMediaPost","id":"RedditPost-kzk4li","excerpt":"","slug":"/reddit/r/books/comments/kzk4li/ursula_k_le_guin_to_be_featured_on_upcoming_usps/","title":"Ursula K. Le Guin to be Featured on Upcoming USPS Literary Arts Stamp","date":"January 26, 2021","dateISO":"2021-01-26T03:12:52.000Z","datetime":"2021-01-26 03:12","tags":["books","reddit"],"image":null,"imageAlt":"Reddit Image","provider":"Reddit","thirdPartyId":"kzk4li","url":"https://www.reddit.com/r/books/comments/kzk4li/ursula_k_le_guin_to_be_featured_on_upcoming_usps/","originalUrl":"https://www.reddit.com/r/books/comments/kzk4li/ursula_k_le_guin_to_be_featured_on_upcoming_usps/","imageRemote":"https://external-preview.redd.it/wroV3xGnwe6KBkufffSg0PEG03o1GxagcjaPmJ9UU94.jpg?width=1080&crop=smart&auto=webp&s=3de2c97fe55987db6bf5ed6073a763fc4a029a95","video":null,"channel":"books","channelUrl":"https://www.reddit.com/r/books","author":"largeheartedboy","authorUrl":"https://www.reddit.com/user/largeheartedboy","authorImage":null,"authorSlug":"largeheartedboy","score":9075,"views":null,"sharedCount":null,"likeCount":null,"sharedContent":null,"parent":{"__typename":"RedditJson","localize":[{"title":"Ursula K. Le Guin将出现在即将发行的USPS文学艺术邮票上。","the_new_excerpt":null,"locale":"zh"},{"title":"Ursula K. Le Guin將出現在即將發行的USPS文學藝術郵票上。","the_new_excerpt":null,"locale":"zh-Hant"}]}},{"__typename":"SocialMediaPost","id":"RedditPost-kzy8ks","excerpt":"","slug":"/reddit/r/books/comments/kzy8ks/hundreds_of_writers_and_book_agents_sign_joint/","title":"Hundreds of writers and book agents sign joint letter demanding publishing industry bans Trump memoir","date":"January 26, 2021","dateISO":"2021-01-26T03:12:52.000Z","datetime":"2021-01-26 03:12","tags":["books","reddit"],"image":null,"imageAlt":"Reddit Image","provider":"Reddit","thirdPartyId":"kzy8ks","url":"https://www.reddit.com/r/books/comments/kzy8ks/hundreds_of_writers_and_book_agents_sign_joint/","originalUrl":"https://www.reddit.com/r/books/comments/kzy8ks/hundreds_of_writers_and_book_agents_sign_joint/","imageRemote":"https://external-preview.redd.it/3vkDX6OHh9YqP6mCcNOCdTzTvEG2aLvalECWdeCiN1U.jpg?width=1080&crop=smart&auto=webp&s=26bc3f47a0fbcf70ce6c20dd2736a6e2aa434b26","video":null,"channel":"books","channelUrl":"https://www.reddit.com/r/books","author":"Obliterature","authorUrl":"https://www.reddit.com/user/Obliterature","authorImage":null,"authorSlug":"Obliterature","score":45939,"views":null,"sharedCount":null,"likeCount":null,"sharedContent":null,"parent":{"__typename":"RedditJson","localize":[{"title":"数百名作家和图书代理商签署联名信，要求出版业禁用特朗普回忆录。","the_new_excerpt":null,"locale":"zh"},{"title":"數百名作家和圖書代理商簽署聯名信，要求出版業禁用特朗普回憶錄。","the_new_excerpt":null,"locale":"zh-Hant"}]}},{"__typename":"SocialMediaPost","id":"RedditPost-l0lope","excerpt":"Sorry if gushy posts about how a book made me cry aren't allowed, but Jesus\nChrist man.\n\nI knew what Lolita was before I read it. I knew it was about a sick, evil man\n\"falling in love\" with a little girl and taking advantage of her after her\nmother dies. But I think going into the book with this…","slug":"/reddit/r/books/comments/l0lope/i_didnt_think_lolita_would_mess_me_up_so_bad/","title":"I didn't think Lolita would mess me up so bad.","date":"January 26, 2021","dateISO":"2021-01-26T03:12:52.000Z","datetime":"2021-01-26 03:12","tags":["books","reddit"],"image":null,"imageAlt":null,"provider":"Reddit","thirdPartyId":"l0lope","url":"https://www.reddit.com/r/books/comments/l0lope/i_didnt_think_lolita_would_mess_me_up_so_bad/","originalUrl":"https://www.reddit.com/r/books/comments/l0lope/i_didnt_think_lolita_would_mess_me_up_so_bad/","imageRemote":null,"video":null,"channel":"books","channelUrl":"https://www.reddit.com/r/books","author":"maxchloerachel","authorUrl":"https://www.reddit.com/user/maxchloerachel","authorImage":null,"authorSlug":"maxchloerachel","score":9874,"views":null,"sharedCount":null,"likeCount":null,"sharedContent":null,"parent":{"__typename":"RedditJson","localize":[{"title":"我没想到洛丽塔会把我搞得这么惨。","the_new_excerpt":"对不起，如果不允许发关于一本书如何让我哭泣的文章，但耶稣\n老天爷\n\n我知道什么是洛丽塔之前，我读它。我知道它是关于一个病态的，邪恶的人。\n\"爱上 \"一个小女孩，并在她之后占她的便宜。\n母亲死了。但我认为进入这本书的时候... ...","locale":"zh"},{"title":"我沒想到洛麗塔會把我搞得這麼慘。","the_new_excerpt":"對不起，如果不允許發關於一本書如何讓我哭泣的文章，但耶穌\n老天爺\n\n我知道什麼是洛麗塔之前，我讀它。我知道它是關於一個病態的，邪惡的人。\n\"愛上 \"一個小女孩，並在她之後佔她的便宜。\n母親死了。但我認爲進入這本書的時候... ...","locale":"zh-Hant"}]}},{"__typename":"SocialMediaPost","id":"RedditPost-l2cwhg","excerpt":"It's frightening! Not only that, but on a literary level, it's also written like\na horror novel. Think about it.\n\n * Overarching sin? Yes, greed.\n\n * The supremely innocent entangled with the supremely guilty? Yes Jim Hawkins\n   and John Silver.\n\n * Violence as a central focus? I'd say that's a big…","slug":"/reddit/r/books/comments/l2cwhg/i_dont_care_what_anyone_else_says_treasure_island/","title":"I don't care what anyone else says, Treasure Island is not an \"Adventure Story.\" It is a horror novel and I stand by that.","date":"January 26, 2021","dateISO":"2021-01-26T03:12:52.000Z","datetime":"2021-01-26 03:12","tags":["books","reddit"],"image":null,"imageAlt":null,"provider":"Reddit","thirdPartyId":"l2cwhg","url":"https://www.reddit.com/r/books/comments/l2cwhg/i_dont_care_what_anyone_else_says_treasure_island/","originalUrl":"https://www.reddit.com/r/books/comments/l2cwhg/i_dont_care_what_anyone_else_says_treasure_island/","imageRemote":null,"video":null,"channel":"books","channelUrl":"https://www.reddit.com/r/books","author":"anon33249038","authorUrl":"https://www.reddit.com/user/anon33249038","authorImage":null,"authorSlug":"anon33249038","score":5783,"views":null,"sharedCount":null,"likeCount":null,"sharedContent":null,"parent":{"__typename":"RedditJson","localize":[{"title":"我不管别人怎么说，《金银岛》不是 \"冒险故事\"。它是一部恐怖小说，我坚持这一点。","the_new_excerpt":"吓死人了! 不仅如此，从文学的层面来说，它还写得像\n恐怖小说。想一想吧\n\n * 最主要的罪恶？是的，贪婪\n\n *极度无辜的人和极度有罪的人纠缠在一起？是的，吉姆-霍金斯\n   和John Silver.\n\n * \"暴力 \"是核心焦点？我会说这是一个大... ...","locale":"zh"},{"title":"我不管別人怎麼說，《金銀島》不是 \"冒險故事\"。它是一部恐怖小說，我堅持這一點。","the_new_excerpt":"嚇死人了! 不僅如此，從文學的層面來說，它還寫得像\n恐怖小說。想一想吧\n\n * 最主要的罪惡？是的，貪婪\n\n *極度無辜的人和極度有罪的人糾纏在一起？是的，吉姆-霍金斯\n   和John Silver.\n\n * \"暴力 \"是核心焦點？我會說這是一個大... ...","locale":"zh-Hant"}]}}]}},"pageContext":{"basePath":"/","pageType":"tag","tag":"books","tagsFilter":{"id":{"glob":"!*Post-1"}},"filter":{"id":{"glob":"!*Post-1"},"tags":{"eq":"books"}},"limit":25,"skip":300,"total":309,"totalPages":13,"currentPage":13,"maxWidth":1024,"maxHeight":512,"locale":"zh-Hant","hrefLang":"zh-Hant","originalPath":"/tags/books/page/13","dateFormat":"YYYY-MM-DD"}},"staticQueryHashes":["1239077767","2506312863","2744905544","3025052997","3493603132","3493603132","3513215887","386998304"]}