{"componentChunkName":"component---node-modules-gatsby-theme-buzzing-src-gatsby-theme-timeline-templates-posts-query-js","path":"/zh-Hant/tags/booksuggestions/page/6","result":{"data":{"site":{"siteMetadata":{"title":"Buzzing 读书","description":"用中文浏览读书，荐书相关的讨论","social":[{"name":"Reddit Books","url":"https://www.reddit.com/r/books/","external":true,"prefetch":null},{"name":"Suggest Me A Book","url":"https://www.reddit.com/r/suggestmeabook/","external":true,"prefetch":null},{"name":"Buzzing","url":"https://www.buzzing.cc/","external":true,"prefetch":null}],"menuLinks":[{"name":"RSS","url":"/rss.xml","external":null,"prefetch":false}],"localize":[{"locale":"en","title":"Buzzing Books","description":"See what's buzzing on Books in your native language","social":[{"name":"Reddit","url":"https://www.reddit.com/","external":true,"prefetch":null}],"menuLinks":[{"name":"RSS","url":"/en/rss.xml","external":null,"prefetch":false}]},{"locale":"zh-Hant","title":"Buzzing 讀書","description":"用中文瀏覽讀書，薦書相關的討論","social":null,"menuLinks":[{"name":"RSS","url":"/zh-Hant/rss.xml","external":null,"prefetch":false}]}]}},"tagsGroup":{"group":[{"fieldValue":"books","totalCount":309},{"fieldValue":"booksuggestions","totalCount":136},{"fieldValue":"reddit","totalCount":445}]},"allBlogPost":{"nodes":[{"__typename":"SocialMediaPost","id":"RedditPost-kssjl6","excerpt":"The news has been pretty depressing here in the US, so who has a good book to\nmake me feel better about humanity again? I need to stop doom scrolling and I'd\nlike to enjoy a good book that preferably avoid politics.\n\nThanks everyone!","slug":"/reddit/r/booksuggestions/comments/kssjl6/books_that_make_you_happywarm_and_fuzzy_a/","title":"Books that make you happy/warm and fuzzy - a solution to doom scrolling","date":"January 26, 2021","dateISO":"2021-01-26T03:12:52.000Z","datetime":"2021-01-26 03:12","tags":["booksuggestions","reddit"],"image":null,"imageAlt":null,"provider":"Reddit","thirdPartyId":"kssjl6","url":"https://www.reddit.com/r/booksuggestions/comments/kssjl6/books_that_make_you_happywarm_and_fuzzy_a/","originalUrl":"https://www.reddit.com/r/booksuggestions/comments/kssjl6/books_that_make_you_happywarm_and_fuzzy_a/","imageRemote":null,"video":null,"channel":"booksuggestions","channelUrl":"https://www.reddit.com/r/booksuggestions","author":"astronomythrowaway12","authorUrl":"https://www.reddit.com/user/astronomythrowaway12","authorImage":null,"authorSlug":"astronomythrowaway12","score":445,"views":null,"sharedCount":null,"likeCount":null,"sharedContent":null,"parent":{"__typename":"RedditJson","localize":[{"title":"让你快乐/温暖和模糊的书--解决末日滚动的方法。","the_new_excerpt":"美国这里的新闻一直很压抑，那么谁有一本好书来\n让我再次对人性产生好感？我需要停止厄运滚动，我将\n喜欢欣赏一本好书，最好是避开政治。\n\n谢谢大家","locale":"zh"},{"title":"讓你快樂/溫暖和模糊的書--解決末日滾動的方法。","the_new_excerpt":"美國這裏的新聞一直很壓抑，那麼誰有一本好書來\n讓我再次對人性產生好感？我需要停止厄運滾動，我將\n喜歡欣賞一本好書，最好是避開政治。\n\n謝謝大家","locale":"zh-Hant"}]}},{"__typename":"SocialMediaPost","id":"RedditPost-kuodys","excerpt":"I need to unload life stress right now and want to throw myself into some\npage-turners.\n\nI really liked Hunger Games, Catching Fire, Divergent, Insurgent...but wanted\nsomething a little more grown up in the romance department.\n\nNot asking for 50 Shades graphic at all...but more \"climactic\" than YA…","slug":"/reddit/r/booksuggestions/comments/kuodys/books_w_adult_dystopian_romance_like_hunger/","title":"Books w/ Adult Dystopian Romance? Like Hunger Games/Divergent but more graphic?","date":"January 26, 2021","dateISO":"2021-01-26T03:12:52.000Z","datetime":"2021-01-26 03:12","tags":["booksuggestions","reddit"],"image":null,"imageAlt":null,"provider":"Reddit","thirdPartyId":"kuodys","url":"https://www.reddit.com/r/booksuggestions/comments/kuodys/books_w_adult_dystopian_romance_like_hunger/","originalUrl":"https://www.reddit.com/r/booksuggestions/comments/kuodys/books_w_adult_dystopian_romance_like_hunger/","imageRemote":null,"video":null,"channel":"booksuggestions","channelUrl":"https://www.reddit.com/r/booksuggestions","author":"OnJah_69","authorUrl":"https://www.reddit.com/user/OnJah_69","authorImage":null,"authorSlug":"OnJah_69","score":294,"views":null,"sharedCount":null,"likeCount":null,"sharedContent":null,"parent":{"__typename":"RedditJson","localize":[{"title":"书籍与成人荒诞爱情？像《饥饿游戏》/《分歧者》，但更有画面感？","the_new_excerpt":"我现在需要卸下生活的压力，想把自己投入到一些\npag -turners. - I really liked Hunger Games, Catching Fire, Divergent, Insurgent...\n\n我很喜欢《饥饿游戏》、《烈火燎原》、《分歧者》、《叛乱》......但我想。\n一些更成熟的浪漫部门。\n\n完全不要求五十度的画面......但比YY更 \"高潮\"......。","locale":"zh"},{"title":"書籍與成人荒誕愛情？像《飢餓遊戲》/《分歧者》，但更有畫面感？","the_new_excerpt":"我現在需要卸下生活的壓力，想把自己投入到一些\npag -turners. - I really liked Hunger Games, Catching Fire, Divergent, Insurgent...\n\n我很喜歡《飢餓遊戲》、《烈火燎原》、《分歧者》、《叛亂》......但我想。\n一些更成熟的浪漫部門。\n\n完全不要求五十度的畫面......但比YY更 \"高潮\"......。","locale":"zh-Hant"}]}},{"__typename":"SocialMediaPost","id":"RedditPost-kv32ce","excerpt":"I would love to learn more about the first civilizations (Sumerian, Minoan,\nEgyptian...), but I do not know where to start to get a general idea about them\nbefore diving deep into a specific one. I have read some books about Universal\nHistory, and I think it is time to take one more step and go just…","slug":"/reddit/r/booksuggestions/comments/kv32ce/which_books_are_the_best_to_learn_about_ancient/","title":"Which books are the best to learn about Ancient History and Civilizations?","date":"January 26, 2021","dateISO":"2021-01-26T03:12:52.000Z","datetime":"2021-01-26 03:12","tags":["booksuggestions","reddit"],"image":null,"imageAlt":null,"provider":"Reddit","thirdPartyId":"kv32ce","url":"https://www.reddit.com/r/booksuggestions/comments/kv32ce/which_books_are_the_best_to_learn_about_ancient/","originalUrl":"https://www.reddit.com/r/booksuggestions/comments/kv32ce/which_books_are_the_best_to_learn_about_ancient/","imageRemote":null,"video":null,"channel":"booksuggestions","channelUrl":"https://www.reddit.com/r/booksuggestions","author":"TheKillingSpoon","authorUrl":"https://www.reddit.com/user/TheKillingSpoon","authorImage":null,"authorSlug":"TheKillingSpoon","score":334,"views":null,"sharedCount":null,"likeCount":null,"sharedContent":null,"parent":{"__typename":"RedditJson","localize":[{"title":"学习古代历史和文明，哪些书最好？","the_new_excerpt":"我很想了解更多关于最早的文明（苏美尔文明、米诺斯文明。\n埃及人......），但我不知道从哪里开始对他们有一个大致的了解。\n在深入研究一个具体的问题之前。我读过一些关于通用的书籍\n历史，我认为是时候再走一步，去只是... ...","locale":"zh"},{"title":"學習古代歷史和文明，哪些書最好？","the_new_excerpt":"我很想了解更多關於最早的文明（蘇美爾文明、米諾斯文明。\n埃及人......），但我不知道從哪裏開始對他們有一個大致的瞭解。\n在深入研究一個具體的問題之前。我讀過一些關於通用的書籍\n歷史，我認爲是時候再走一步，去只是... ...","locale":"zh-Hant"}]}},{"__typename":"SocialMediaPost","id":"RedditPost-kvskgx","excerpt":"A series with thousands of pages seems a little overwhelming, currently. Is\nthere a book to introduce one to Fantasy? One that would suggest if Fantasy\ngenre is ones cup of tea?\n\nLike I said, I’m brand new to reading and have only finished 3 books, popular\nones (where the crawdads sing, A Million…","slug":"/reddit/r/booksuggestions/comments/kvskgx/i_am_new_to_reading_in_my_beginning_stages_of/","title":"I am new to reading in my beginning stages of sobriety to pass time. I would enjoy getting lost into books to escape from reality and pass time while still being constructive. I thought maybe Fantasy would do the trick? I would like to dabble in the Fantasy genre but don’t know where to start.","date":"January 26, 2021","dateISO":"2021-01-26T03:12:52.000Z","datetime":"2021-01-26 03:12","tags":["booksuggestions","reddit"],"image":null,"imageAlt":null,"provider":"Reddit","thirdPartyId":"kvskgx","url":"https://www.reddit.com/r/booksuggestions/comments/kvskgx/i_am_new_to_reading_in_my_beginning_stages_of/","originalUrl":"https://www.reddit.com/r/booksuggestions/comments/kvskgx/i_am_new_to_reading_in_my_beginning_stages_of/","imageRemote":null,"video":null,"channel":"booksuggestions","channelUrl":"https://www.reddit.com/r/booksuggestions","author":"missmmac","authorUrl":"https://www.reddit.com/user/missmmac","authorImage":null,"authorSlug":"missmmac","score":450,"views":null,"sharedCount":null,"likeCount":null,"sharedContent":null,"parent":{"__typename":"RedditJson","localize":[{"title":"我是新来的，在戒酒的初级阶段，为了打发时间而读书。我很喜欢迷失在书中，以逃避现实，打发时间，同时还能起到建设性的作用。我想也许奇幻类的书会有这样的效果？我想涉足奇幻类的书籍，但不知道从哪里开始。","the_new_excerpt":"一个系列有上千页，目前看来有些吃力。是\n有一本书可以介绍一个人到幻想？一个会建议如果幻想\n类型是一个人的茶杯？\n\n就像我说的，我是全新的读书人，只看完了3本书，热门的\n小龙虾唱的《百万... ...","locale":"zh"},{"title":"我是新來的，在戒酒的初級階段，爲了打發時間而讀書。我很喜歡迷失在書中，以逃避現實，打發時間，同時還能起到建設性的作用。我想也許奇幻類的書會有這樣的效果？我想涉足奇幻類的書籍，但不知道從哪裏開始。","the_new_excerpt":"一個系列有上千頁，目前看來有些喫力。是\n有一本書可以介紹一個人到幻想？一個會建議如果幻想\n類型是一個人的茶杯？\n\n就像我說的，我是全新的讀書人，只看完了3本書，熱門的\n小龍蝦唱的《百萬... ...","locale":"zh-Hant"}]}},{"__typename":"SocialMediaPost","id":"RedditPost-kwsipe","excerpt":"First of all big “i hate you/I love you” to everyone on here who has suggested\nSong of Achilles. I’m crying right now so as punishment please recommend a fluff\nfilled laugh fest so that I may recover. Thank you","slug":"/reddit/r/booksuggestions/comments/kwsipe/in_need_of_uplifting_fluff_to_recover_from_song/","title":"In need of uplifting fluff to recover from Song of Achilles","date":"January 26, 2021","dateISO":"2021-01-26T03:12:52.000Z","datetime":"2021-01-26 03:12","tags":["booksuggestions","reddit"],"image":null,"imageAlt":null,"provider":"Reddit","thirdPartyId":"kwsipe","url":"https://www.reddit.com/r/booksuggestions/comments/kwsipe/in_need_of_uplifting_fluff_to_recover_from_song/","originalUrl":"https://www.reddit.com/r/booksuggestions/comments/kwsipe/in_need_of_uplifting_fluff_to_recover_from_song/","imageRemote":null,"video":null,"channel":"booksuggestions","channelUrl":"https://www.reddit.com/r/booksuggestions","author":"andeargdue","authorUrl":"https://www.reddit.com/user/andeargdue","authorImage":null,"authorSlug":"andeargdue","score":422,"views":null,"sharedCount":null,"likeCount":null,"sharedContent":null,"parent":{"__typename":"RedditJson","localize":[{"title":"需要振奋人心的绒毛来从阿基里斯之歌中恢复过来。","the_new_excerpt":"首先向这里所有提出建议的人说声 \"我恨你/我爱你\"。\n阿基里斯之歌 我现在哭了，所以作为惩罚，请推荐一个蓬松的\n充满笑声的盛会，让我可以恢复。謝謝你","locale":"zh"},{"title":"需要振奮人心的絨毛來從阿基里斯之歌中恢復過來。","the_new_excerpt":"首先向這裏所有提出建議的人說聲 \"我恨你/我愛你\"。\n阿基里斯之歌 我現在哭了，所以作爲懲罰，請推薦一個蓬鬆的\n充滿笑聲的盛會，讓我可以恢復。謝謝你","locale":"zh-Hant"}]}},{"__typename":"SocialMediaPost","id":"RedditPost-kxx625","excerpt":"","slug":"/reddit/r/booksuggestions/comments/kxx625/lost_my_dad_to_covid_on_1421_grieving_alone_any/","title":"Lost my dad to Covid on 1/4/21. Grieving alone. Any suggestions on books to help me get through?","date":"January 26, 2021","dateISO":"2021-01-26T03:12:52.000Z","datetime":"2021-01-26 03:12","tags":["booksuggestions","reddit"],"image":null,"imageAlt":null,"provider":"Reddit","thirdPartyId":"kxx625","url":"https://www.reddit.com/r/booksuggestions/comments/kxx625/lost_my_dad_to_covid_on_1421_grieving_alone_any/","originalUrl":"https://www.reddit.com/r/booksuggestions/comments/kxx625/lost_my_dad_to_covid_on_1421_grieving_alone_any/","imageRemote":null,"video":null,"channel":"booksuggestions","channelUrl":"https://www.reddit.com/r/booksuggestions","author":"babygotbrains","authorUrl":"https://www.reddit.com/user/babygotbrains","authorImage":null,"authorSlug":"babygotbrains","score":744,"views":null,"sharedCount":null,"likeCount":null,"sharedContent":null,"parent":{"__typename":"RedditJson","localize":[{"title":"21年4月1日，我爸爸死于科维德。独自悲伤。有什么书的建议可以帮助我度过难关？","the_new_excerpt":null,"locale":"zh"},{"title":"21年4月1日，我爸爸死於科維德。獨自悲傷。有什麼書的建議可以幫助我度過難關？","the_new_excerpt":null,"locale":"zh-Hant"}]}},{"__typename":"SocialMediaPost","id":"RedditPost-kyju5w","excerpt":"I’m searching for books about the lives of women in their 30s that isn’t a\nromance story or a ‘I was a white picket fence soccer mum and then went wild’\ntale.\n\nBeing in my 30s, I can’t really relate to the “enjoy your 20s!” Or “young\nsingles!” anymore and I’m not quite at the ‘older women being…","slug":"/reddit/r/booksuggestions/comments/kyju5w/books_about_women_in_their_30s/","title":"Books about women in their 30s?","date":"January 26, 2021","dateISO":"2021-01-26T03:12:52.000Z","datetime":"2021-01-26 03:12","tags":["booksuggestions","reddit"],"image":null,"imageAlt":null,"provider":"Reddit","thirdPartyId":"kyju5w","url":"https://www.reddit.com/r/booksuggestions/comments/kyju5w/books_about_women_in_their_30s/","originalUrl":"https://www.reddit.com/r/booksuggestions/comments/kyju5w/books_about_women_in_their_30s/","imageRemote":null,"video":null,"channel":"booksuggestions","channelUrl":"https://www.reddit.com/r/booksuggestions","author":"saiorsemcnally","authorUrl":"https://www.reddit.com/user/saiorsemcnally","authorImage":null,"authorSlug":"saiorsemcnally","score":429,"views":null,"sharedCount":null,"likeCount":null,"sharedContent":null,"parent":{"__typename":"RedditJson","localize":[{"title":"关于30多岁女性的书？","the_new_excerpt":"我在寻找关于30多岁女性生活的书，这不是一本... ...\n言情故事或 \"我是一个白色栅栏的足球妈妈，然后疯狂\"。\n的故事。\n\n作为一个30多岁的人，我实在无法体会到 \"享受你的20多岁！\"。或者 \"年轻\n单身！\"了，我也不太在 \"老女人被... ...","locale":"zh"},{"title":"關於30多歲女性的書？","the_new_excerpt":"我在尋找關於30多歲女性生活的書，這不是一本... ...\n言情故事或 \"我是一個白色柵欄的足球媽媽，然後瘋狂\"。\n的故事。\n\n作爲一個30多歲的人，我實在無法體會到 \"享受你的20多歲！\"。或者 \"年輕\n單身！\"了，我也不太在 \"老女人被... ...","locale":"zh-Hant"}]}},{"__typename":"SocialMediaPost","id":"RedditPost-kzt7h5","excerpt":"Hello everyone,\n\nI was wondering if anyone had some good go-to recommendations for books which\nfocus on Black history and some of the most important events and figures within\nthat time.\n\nI realised that I have no real in-depth knowledge of black people's history and\ntheir struggle during and since…","slug":"/reddit/r/booksuggestions/comments/kzt7h5/suggestions_of_must_read_books_surrounding_black/","title":"Suggestions of must read books surrounding Black History, MLK, Malcolm X, slave trade, BLM, Jim crow laws, racism and the Black experience.","date":"January 26, 2021","dateISO":"2021-01-26T03:12:52.000Z","datetime":"2021-01-26 03:12","tags":["booksuggestions","reddit"],"image":null,"imageAlt":null,"provider":"Reddit","thirdPartyId":"kzt7h5","url":"https://www.reddit.com/r/booksuggestions/comments/kzt7h5/suggestions_of_must_read_books_surrounding_black/","originalUrl":"https://www.reddit.com/r/booksuggestions/comments/kzt7h5/suggestions_of_must_read_books_surrounding_black/","imageRemote":null,"video":null,"channel":"booksuggestions","channelUrl":"https://www.reddit.com/r/booksuggestions","author":"nabanoh428","authorUrl":"https://www.reddit.com/user/nabanoh428","authorImage":null,"authorSlug":"nabanoh428","score":330,"views":null,"sharedCount":null,"likeCount":null,"sharedContent":null,"parent":{"__typename":"RedditJson","localize":[{"title":"围绕黑人历史、MLK、马尔科姆-X、奴隶贸易、BLM、吉姆-乌鸦法、种族主义和黑人经历的必读书籍建议。","the_new_excerpt":"大家好\n\n我想知道，如果有人有一些好的去推荐的书籍，这是我的梦想。\n着重介绍黑人历史和其中一些最重要的事件和人物。\n那个时候。\n\n我意识到自己对黑人的历史没有真正深入的了解，而且\n他们在斗争中和自...","locale":"zh"},{"title":"圍繞黑人歷史、MLK、馬爾科姆-X、奴隸貿易、BLM、吉姆-烏鴉法、種族主義和黑人經歷的必讀書籍建議。","the_new_excerpt":"大家好\n\n我想知道，如果有人有一些好的去推薦的書籍，這是我的夢想。\n着重介紹黑人歷史和其中一些最重要的事件和人物。\n那個時候。\n\n我意識到自己對黑人的歷史沒有真正深入的瞭解，而且\n他們在鬥爭中和自...","locale":"zh-Hant"}]}},{"__typename":"SocialMediaPost","id":"RedditPost-l0gita","excerpt":"Hi everyone,\n\nI am fairly new to Reddit, still trying to figure out how it really works. But,\nI came across this sub Reddit and I thought to myself, give it a try, it might\nbe helpful.\n\nSo here goes nothing.\n\nWhen I was little, I grew up reading books. My parents read to me before bedtime\nand…","slug":"/reddit/r/booksuggestions/comments/l0gita/used_to_be_a_book_lover_but_then_social_media/","title":"Used to be a book lover, but then social media happened and I lost interest. Can somebody recommend me books to read so I can love it again?","date":"January 26, 2021","dateISO":"2021-01-26T03:12:52.000Z","datetime":"2021-01-26 03:12","tags":["booksuggestions","reddit"],"image":null,"imageAlt":null,"provider":"Reddit","thirdPartyId":"l0gita","url":"https://www.reddit.com/r/booksuggestions/comments/l0gita/used_to_be_a_book_lover_but_then_social_media/","originalUrl":"https://www.reddit.com/r/booksuggestions/comments/l0gita/used_to_be_a_book_lover_but_then_social_media/","imageRemote":null,"video":null,"channel":"booksuggestions","channelUrl":"https://www.reddit.com/r/booksuggestions","author":"Gellemen","authorUrl":"https://www.reddit.com/user/Gellemen","authorImage":null,"authorSlug":"Gellemen","score":553,"views":null,"sharedCount":null,"likeCount":null,"sharedContent":null,"parent":{"__typename":"RedditJson","localize":[{"title":"以前是个爱读书的人，但后来发生了社交媒体，我就失去了兴趣。谁能给我推荐一些书看，让我重新爱上它？","the_new_excerpt":"大家好\n\n我对Reddit相当陌生，还在试图弄清楚它到底是如何工作的。但是，\n我看到这个子Reddit，我想，给它一个尝试，它可能会\n是有帮助的。\n\n所以这里就不说了。\n\n小时候，我是看书长大的。我父母在睡前给我读书\n还有...","locale":"zh"},{"title":"以前是個愛讀書的人，但後來發生了社交媒體，我就失去了興趣。誰能給我推薦一些書看，讓我重新愛上它？","the_new_excerpt":"大家好\n\n我對Reddit相當陌生，還在試圖弄清楚它到底是如何工作的。但是，\n我看到這個子Reddit，我想，給它一個嘗試，它可能會\n是有幫助的。\n\n所以這裏就不說了。\n\n小時候，我是看書長大的。我父母在睡前給我讀書\n還有...","locale":"zh-Hant"}]}},{"__typename":"SocialMediaPost","id":"RedditPost-l19e9a","excerpt":"","slug":"/reddit/r/booksuggestions/comments/l19e9a/doris_lessing_said_the_book_which_bores_you_when/","title":"Doris Lessing said “the book which bores you when you are twenty or thirty will open doors for you when you are forty or fifty - and vice versa. Don’t read a book out of its right time for you.” What books (if any) was this statement true for you?","date":"January 26, 2021","dateISO":"2021-01-26T03:12:52.000Z","datetime":"2021-01-26 03:12","tags":["booksuggestions","reddit"],"image":null,"imageAlt":null,"provider":"Reddit","thirdPartyId":"l19e9a","url":"https://www.reddit.com/r/booksuggestions/comments/l19e9a/doris_lessing_said_the_book_which_bores_you_when/","originalUrl":"https://www.reddit.com/r/booksuggestions/comments/l19e9a/doris_lessing_said_the_book_which_bores_you_when/","imageRemote":null,"video":null,"channel":"booksuggestions","channelUrl":"https://www.reddit.com/r/booksuggestions","author":"[deleted]","authorUrl":"https://www.reddit.com/user/[deleted]","authorImage":null,"authorSlug":"[deleted]","score":790,"views":null,"sharedCount":null,"likeCount":null,"sharedContent":null,"parent":{"__typename":"RedditJson","localize":[{"title":"多丽丝-莱辛说：\"在你二十岁或三十岁时让你厌烦的书，在你四五十岁时将为你打开大门--反之亦然。不要读一本不适合你的书。\" 这句话对你来说是什么书（如果有的话）？","the_new_excerpt":null,"locale":"zh"},{"title":"多麗絲-萊辛說：\"在你二十歲或三十歲時讓你厭煩的書，在你四五十歲時將爲你打開大門--反之亦然。不要讀一本不適合你的書。\" 這句話對你來說是什麼書（如果有的話）？","the_new_excerpt":null,"locale":"zh-Hant"}]}},{"__typename":"SocialMediaPost","id":"RedditPost-l1w01k","excerpt":"I’ve read We Have Always Lived in the Castle and really enjoyed the elements of\nnot knowing what’s real due to the main character. The way you can’t tell if\nshe’s mad or magical and her descriptions of what’s happened slowly evolve is\nreally interesting to me.\n\nI also just read Piranesi and…","slug":"/reddit/r/booksuggestions/comments/l1w01k/books_with_an_unreliable_narratornarrator_that/","title":"Books with an unreliable narrator/narrator that isn’t telling the truth","date":"January 26, 2021","dateISO":"2021-01-26T03:12:52.000Z","datetime":"2021-01-26 03:12","tags":["booksuggestions","reddit"],"image":null,"imageAlt":null,"provider":"Reddit","thirdPartyId":"l1w01k","url":"https://www.reddit.com/r/booksuggestions/comments/l1w01k/books_with_an_unreliable_narratornarrator_that/","originalUrl":"https://www.reddit.com/r/booksuggestions/comments/l1w01k/books_with_an_unreliable_narratornarrator_that/","imageRemote":null,"video":null,"channel":"booksuggestions","channelUrl":"https://www.reddit.com/r/booksuggestions","author":"isenguardian66","authorUrl":"https://www.reddit.com/user/isenguardian66","authorImage":null,"authorSlug":"isenguardian66","score":299,"views":null,"sharedCount":null,"likeCount":null,"sharedContent":null,"parent":{"__typename":"RedditJson","localize":[{"title":"叙述者不可靠/叙述者不说实话的书。","the_new_excerpt":"我读过《我们一直住在城堡里》，非常喜欢其中的元素。\n由于主人公的原因，不知道什么是真实的。的方式，你无法判断是否\n她是疯了还是有魔力，她对所发生的事情的描述慢慢地演变是\n对我来说真的很有趣\n\n我也刚刚读了皮拉尼西和...","locale":"zh"},{"title":"敘述者不可靠/敘述者不說實話的書。","the_new_excerpt":"我讀過《我們一直住在城堡裏》，非常喜歡其中的元素。\n由於主人公的原因，不知道什麼是真實的。的方式，你無法判斷是否\n她是瘋了還是有魔力，她對所發生的事情的描述慢慢地演變是\n對我來說真的很有趣\n\n我也剛剛讀了皮拉尼西和...","locale":"zh-Hant"}]}}]}},"pageContext":{"basePath":"/","pageType":"tag","tag":"booksuggestions","tagsFilter":{"id":{"glob":"!*Post-1"}},"filter":{"id":{"glob":"!*Post-1"},"tags":{"eq":"booksuggestions"}},"limit":25,"skip":125,"total":136,"totalPages":6,"currentPage":6,"maxWidth":1024,"maxHeight":512,"locale":"zh-Hant","hrefLang":"zh-Hant","originalPath":"/tags/booksuggestions/page/6","dateFormat":"YYYY-MM-DD"}},"staticQueryHashes":["1239077767","2506312863","2744905544","3025052997","3493603132","3493603132","3513215887","386998304"]}